{
  "id": "55b1bad9f9ba85707d225dc315779484",
  "userId": 100010553,
  "name": "Salvo Vaccarino",
  "userKey": "55b1bad9f9ba85707d225dc315779484",
  "email": "salvo.vaccarino@radical.ie",
  "created": "2015-04-30T16:24:49.000Z"
}
